Data Aggregation and Joining – 501 - Spring 2025
…
merged_df <- aggregated_df %>%
  left_join(polity, by = c("iso3alpha" = "scode", "yearbegin" = "year"))

# Check for missing on polity2

table(is.na(merged_df$polity2)) #lots of mistakes

FALSE  TRUE 
  590   690 

# list iso3alpha with missing polity2

print(n = 20, merged_df %>% filter(is.na(polity2)) %>% dplyr::select(iso3alpha, yearbegin) %>% distinct())

# A tibble: 690 × 2
   iso3alpha yearbegin
   <chr>         <int>
 1 AFG            2001
 2 AFG            2002
 3 AGO            1995
 4 AGO            1996
 5 AGO            1997
 6 AGO            1998
 7 AGO            1999
 8 AGO            2000
 9 AGO            2001
10 AGO            2002
11 AGO            2003
12 AGO            2004
13 AGO            2005
14 ARE            1995
15 ARE            1996
16 ARE            1997
17 ARE            1998
18 ARE            2001
19 ARE            2002
20 ARE            2004
# ℹ 670 more rows
…
